Coffee Ratings - Joseph Pope
…
coff_train

## # A tibble: 834 x 50
##       id aroma flavor aftertaste acidity  body balance uniformity clean_cup
##    <int> <dbl>  <dbl>      <dbl>   <dbl> <dbl>   <dbl>      <dbl>     <dbl>
##  1     2  3.84   3.55       3.27    3.35 3.35     2.68      0.312     0.225
##  2     3  2.77   3.03       3.04    2.84 3.02     2.68      0.312     0.225
##  3     5  2.22   3.03       2.54    3.10 3.35     2.41      0.312     0.225
##  4    10  1.66   3.27       3.27    3.10 0.575    2.68      0.312     0.225
##  5    12  2.22   2.78       2.30    2.56 2.09     1.94      0.312     0.225
##  6    13  1.66   3.55       2.77    2.84 1.80     1.68      0.312     0.225
##  7    16  1.40   3.03       3.51    2.05 2.42     1.44      0.312     0.225
##  8    19  2.77   2.26       2.03    2.05 1.50     1.44      0.312     0.225
##  9    21  1.40   2.26       2.03    3.10 2.72     1.44      0.312     0.225
## 10    23  1.96   2.26       2.30    1.51 1.17     1.94      0.312     0.225
## # … with 824 more rows, and 41 more variables: sweetness <dbl>, moisture <dbl>,
## #   cupper_points <dbl>, country_of_origin_Colombia <dbl>,
## #   country_of_origin_Costa.Rica <dbl>, country_of_origin_Ethiopia <dbl>,
## #   country_of_origin_Guatemala <dbl>, country_of_origin_Honduras <dbl>,
## #   country_of_origin_Mexico <dbl>, country_of_origin_Other <dbl>,
## #   country_of_origin_Taiwan <dbl>,
## #   country_of_origin_Tanzania..United.Republic.Of <dbl>,
## #   country_of_origin_United.States..Hawaii. <dbl>,
## #   variety_Blue.Mountain <dbl>, variety_Bourbon <dbl>, variety_Catimor <dbl>,
…
Now we can go back to the linear and random forest regression models used earlier, but now substitute the data with better processing. I think I see why they went with the “recipe” motif! Like baking, I can swap in ingredients without having to start over from scratch.

lm_fit1 <- fit(lm_spec, cupper_points ~ ., coff_train)
glance(lm_fit1$fit)

## # A tibble: 1 x 11
##   r.squared adj.r.squared sigma statistic   p.value    df logLik   AIC    BIC
##       <dbl>         <dbl> <dbl>     <dbl>     <dbl> <int>  <dbl> <dbl>  <dbl>
## 1     0.751         0.736 0.204      49.4 2.55e-203    49   168. -237. -0.335
## # … with 2 more variables: deviance <dbl>, df.residual <int>

tidy(lm_fit1) %>% 
  arrange(desc(abs(statistic)))

## # A tibble: 49 x 5
##    term                        estimate std.error statistic  p.value
##    <chr>                          <dbl>     <dbl>     <dbl>    <dbl>
##  1 (Intercept)                 7.71     0.109         70.7  0.      
##  2 id                         -0.000309 0.0000479     -6.45 1.99e-10
##  3 aftertaste                  0.0944   0.0163         5.79 1.01e- 8
##  4 balance                     0.0665   0.0132         5.02 6.39e- 7
##  5 flavor                      0.0789   0.0173         4.56 6.07e- 6
##  6 country_of_origin_Taiwan   -0.135    0.0462        -2.92 3.63e- 3
##  7 moisture                   -0.0230   0.00823       -2.79 5.36e- 3
##  8 country_of_origin_Colombia -0.0990   0.0434        -2.28 2.28e- 2
##  9 sweetness                  -0.0177   0.00819       -2.16 3.09e- 2
## 10 variety_SL28               -0.256    0.119         -2.16 3.14e- 2
## # … with 39 more rows

lm_predicted <- augment(lm_fit1$fit, data = coff_train) 
select(lm_predicted, id, cupper_points, .fitted:.std.resid)

## # A tibble: 834 x 9
##       id cupper_points .fitted .se.fit   .resid   .hat .sigma .cooksd .std.resid
##    <int>         <dbl>   <dbl>   <dbl>    <dbl>  <dbl>  <dbl>   <dbl>      <dbl>
##  1     2          8.58    8.52  0.0749  0.0562  0.135   0.204 2.80e-4     0.297 
##  2     3          9.25    8.45  0.0431  0.795   0.0447  0.202 1.52e-2     3.99  
##  3     5          8.58    8.39  0.0707  0.187   0.120   0.204 2.67e-3     0.977 
##  4    10          8.5     8.49  0.0721  0.00789 0.125   0.204 5.00e-6     0.0414
##  5    12          8.5     8.34  0.0379  0.162   0.0345  0.204 4.75e-4     0.807 
##  6    13          8.33    8.43  0.0435 -0.0979  0.0456  0.204 2.36e-4    -0.492 
##  7    16          8.17    8.43  0.0443 -0.264   0.0472  0.204 1.78e-3    -1.33  
##  8    19          8.42    8.21  0.0570  0.206   0.0783  0.204 1.92e-3     1.05  
##  9    21          8.17    8.25  0.0407 -0.0779  0.0398  0.204 1.29e-4    -0.390 
## 10    23          8.58    8.24  0.0402  0.344   0.0388  0.204 2.44e-3     1.72  
## # … with 824 more rows
…
rf_predicted <- bind_cols(.fitted = rf_fit1$fit$predictions, data = coff_train)
select(rf_predicted, id, cupper_points, .fitted)

## # A tibble: 834 x 3
##       id cupper_points .fitted
##    <int>         <dbl>   <dbl>
##  1     2          8.58    8.60
##  2     3          9.25    8.31
##  3     5          8.58    8.54
##  4    10          8.5     8.41
##  5    12          8.5     8.30
##  6    13          8.33    8.36
##  7    16          8.17    8.33
##  8    19          8.42    8.24
##  9    21          8.17    8.29
## 10    23          8.58    8.14
## # … with 824 more rows
…
